ZNF197 
RBM8A 
NPRL3 
IL6ST 
PANK3 
UCKL1 
UBA1 
PPM1A 
EMC6 
FASTKD5 
POLR2J 
ATF1 
GRSF1 
MMAA 
PSMB2 
COX7C 
ATF7IP 
SPRYD7 
UBIAD1 
TECR 
ZCCHC9 
BTBD2 
BTD 
ARMCX5 
DDX47 
MRPL36 
ARHGDIA 
MCU 
NDUFS3 
SHARPIN 
SUPT5H 
RPL6 
MLX 
C4orf3 
MRPL4 
LRPAP1 
CLPTM1L 
DDOST 
CDC27 
EIF4G2 
EMG1 
ELL2 
ETFA 
TBCC 
DCTD 
POLR1C 
C1orf50 
MAD2L2 
TMEM19 
ZNF438 
ZMYM2 
SETDB1 
SURF4 
LRRC24 
GLI4 
LYSMD1 
POLD2 
NDUFB3 
URM1 
MICALL1 
BPNT1 
PPARA 
UCHL5 
DDA1 
SNRPA 
SNX2 
GAPVD1 
RAD17 
GPR107 
API5 
RAB10 
TMEM222 
CD320 
SUGT1 
KXD1 
PURA 
ACTR10 
TM9SF4 
EXOSC10 
NDUFA8 
SUV420H1 
ATXN10 
APOPT1 
ACBD3 
PPP2R5A 
ADPRM 
BRD9 
TMEM14B 
PPP1CC 
ASB1 
AK2 
DDB1 
NFIL3 
PPP1R37 
ZNF579 
GLCE 
GOLPH3 
PPP2R3C 
PIAS1 
MGAT4B 
ISY1 
NABP2 
SNX5 
CDC123 
INTS1 
ISOC2 
MON1A 
KAT2B 
DNAJC10 
ATXN2 
PLA2G12A 
ZNF777 
ICMT 
SDHD 
LOC441155 
CDIP1 
GSPT2 
ADSL 
CRLS1 
HAX1 
DGCR2 
ARIH1 
MRPL1 
PATZ1 
IFT27 
MBLAC1 
WDR12 
ARL6IP4 
PLOD1 
UBE2Z 
ARV1 
KIAA1143 
UHRF1BP1L 
UROS 
MRPS28 
SNAPC3 
C7orf55 
DYNLRB1 
SCAND1 
MON2 
SARNP 
NGRN 
CCDC86 
PYGO2 
CGGBP1 
TMED2 
EIF2D 
SEH1L 
RALA 
ZBTB8OS 
GATAD2A 
SYAP1 
CUX1 
C10orf76 
CYC1 
FBXO42 
PAM16 
HPS1 
MRPL46 
PRMT7 
RAB7A 
GFER 
PRKAB1 
SETD2 
SPG11 
IFNAR1 
BAG1 
SNX3 
RBM42 
MRPS5 
C8orf59 
CHUK 
ATP6V1G1 
FBRSL1 
PANK2 
ZFAND5 
SPTSSA 
DNAJC4 
TAF12 
ZNF446 
RAB14 
SRSF3 
CNIH4 
CD164 
MRPS18C 
ANAPC5 
DTWD1 
PMVK 
COX11 
L3MBTL2 
CTU2 
TIMM21 
FAM204A 
NDFIP1 
PAPD7 
AKIP1 
ARHGEF40 
AMD1 
ZNF398 
PSKH1 
CDC23 
RPL11 
POLE4 
TMEM30A 
NDUFB5 
LARS2 
PPA2 
USP14 
SLC25A5 
LPCAT3 
NMT1 
COA6 
DIEXF 
NANS 
R3HCC1 
VPS26B 
C9orf123 
AGPAT3 
TMEM219 
LAMTOR1 
PHB2 
ZBTB14 
FAM127B 
ATP5J2-PTCD1 
NME2 
TUBGCP2 
WDR20 
MRPL11 
TMEM69 
NME6 
UBE2R2 
B4GALT3 
AK3 
RUFY1 
SNRNP70 
MRPS16 
FGFR1OP2 
PLOD3 
RMDN1 
KDSR 
EDC3 
PRDX1 
SMG5 
SLC25A46 
RNF126 
SNX18 
MOB4 
NUCB1 
CNOT1 
BZW1 
ZBTB44 
RAB18 
PTPN23 
SF3B14 
PARP1 
KCTD21 
SRSF1 
SEC13 
FKRP 
GLG1 
TMBIM4 
PSMC6 
AXIN1 
GART 
POLR2D 
DRAM2 
EIF1 
ZBTB39 
CNIH 
OSBPL2 
RMND1 
ZNF787 
TIMM50 
ECD 
ECHS1 
STAU2 
C2orf47 
SLC15A4 
NDUFA9 
RQCD1 
C9orf78 
TMED10 
MRS2 
NOL6 
REST 
IDI1 
PRCC 
MORF4L2 
ATP5J 
FAM160B1 
SKIL 
PPP1R7 
EIF3J 
C21orf33 
IMMT 
CHMP4B 
STUB1 
TRIM8 
SELRC1 
GOLGB1 
DAP3 
UTP14A 
UAP1 
C12orf5 
TMF1 
TOMM20 
PSMD6 
ADO 
EIF4H 
COG8 
HS2ST1 
FIS1 
CNOT2 
EIF3M 
VEZT 
C15orf38-AP3S2 
ZDHHC4 
SPRYD3 
C11orf31 
GTF3C5 
FDPS 
TAF4 
MYL12B 
TTC1 
INTS12 
PGRMC2 
SPCS1 
POLR3E 
CD99L2 
CLCN7 
CHMP1A 
TM2D1 
MRP63 
ANKRD46 
DCUN1D3 
ZNF655 
CTNND1 
ATP6V1C1 
GEMIN7 
ARMC5 
SLC25A39 
BCL2L2-PABPN1 
SAP18 
ZNF672 
EIF6 
RAPGEF2 
DESI1 
RPL32 
KLHL8 
METAP1 
COPG1 
USP39 
NEK9 
C14orf28 
ZBTB11 
PSMC2 
SLC35C2 
CAPRIN1 
SPG21 
PES1 
MRPL27 
KIAA0754 
PRMT5 
CALR 
TPRG1L 
ADPRH 
NSRP1 
THAP3 
RRAGA 
HDAC8 
HSPA4 
OSTM1 
MCCC1 
EMC7 
FLOT1 
HNRNPM 
EIF2B4 
EEF1E1 
KIAA1704 
ICT1 
NDEL1 
TCEB2 
BRE 
ATAD3A 
DEGS1 
NBN 
SSNA1 
SF3B2 
MRPS26 
TIMM9 
SF1 
MRPS27 
COX6B1 
COA5 
RPL35A 
ARFIP2 
NDUFB2 
BOD1 
CLPTM1 
CTSA 
SUGP1 
C11orf1 
C10orf88 
PRRC2B 
COA4 
MRPL16 
OS9 
PPAN 
KLHL36 
ZDHHC2 
OAT 
TXN2 
ABCF1 
MINOS1 
PMPCB 
NT5C3 
EIF4G3 
CEBPZ 
ACADVL 
C14orf2 
PTCD3 
NUCKS1 
NUP62 
CPSF6 
COX15 
TMEM184C 
CHURC1 
MRPL55 
USP7 
NARS2 
NUDT9 
DMAP1 
HTT 
LRRC8A 
INPP5K 
SPPL2B 
UTP14C 
METRN 
GCDH 
MRPS22 
C16orf13 
HNRNPC 
RNF4 
EMC8 
SPOP 
C5orf15 
ATG2B 
PPAN-P2RY11 
REXO1 
GET4 
ZNF33A 
GALNT1 
GTPBP8 
KTI12 
GSTM4 
GMPR2 
RAB21 
TRAPPC2L 
RCN2 
DRG2 
RCHY1 
PPP1R10 
HSPA14 
SLC39A7 
TIA1 
ZNF232 
CTNNBL1 
BLOC1S1 
PSMB4 
LIN7C 
TAB2 
DNAJB11 
PSMB1 
FEN1 
HCCS 
DNAJB9 
ECH1 
DCAF11 
VPS26A 
ALG8 
ENY2 
C21orf2 
ZW10 
GEMIN8 
DEXI 
MKLN1 
PTRH1 
TMBIM1 
PAPOLA 
TMEM179B 
RHOT1 
PGBD3 
SDF4 
GDE1 
DKC1 
SGSM3 
NDUFAF3 
ELK4 
CARS 
RNMTL1 
HIAT1 
WDR61 
UROD 
MARS2 
FICD 
ZNF580 
MARK3 
ZZZ3 
SLC20A1 
PRPF4B 
CDC16 
ANKRD17 
SNRPB2 
TSPYL1 
TGOLN2 
DDX17 
AHCY 
H2AFV 
BRD7 
NCL 
MRPL49 
MAEA 
ATAD1 
TADA3 
ZBTB17 
PRUNE 
TICAM1 
SRSF4 
ANAPC11 
UBA5 
TSC2 
DHX33 
C9orf89 
BCL2L13 
ATF7 
ELAVL1 
CNST 
PSMF1 
RPA3 
PCGF1 
NCKIPSD 
DGCR14 
SERINC3 
MRFAP1 
GIPC1 
ATPIF1 
COG7 
ZNF343 
FAF2 
PHF12 
TATDN2 
EID2 
CPNE1 
RAB6A 
INTS3 
ARAF 
SPSB3 
COX20 
SPAG9 
ACOT9 
PLEKHA1 
THADA 
ZNF592 
PPP2R4 
DIMT1 
ARNT 
ZBTB7A 
PICK1 
POLDIP2 
CLPP 
DNAAF2 
LAMTOR4 
PSMA2 
MRPL40 
TUBA1C 
PRMT1 
RPL7L1 
CRY2 
WDR59 
DDX49 
ACIN1 
EI24 
TMEM18 
ANP32B 
THOC5 
MUL1 
RNF11 
BTF3 
C7orf25 
ZNF410 
TAF11 
DHX9 
BAZ1B 
C17orf58 
DCAF12 
TMED7 
ZC3H18 
COPS5 
NOB1 
CDC5L 
PSMD13 
UBE2D3 
AIMP1 
RBM12B 
RNF26 
RC3H2 
WDR45 
COMMD5 
JOSD2 
DNAJC5 
TRIM39-RPP21 
KIAA1715 
HDAC3 
MED21 
POP5 
VAPB 
TJAP1 
RRS1 
ACBD6 
NF2 
TMEM62 
AAR2 
TRAP1 
DIS3 
RUVBL1 
HSD17B10 
TMEM9B 
NDUFA13 
ERGIC2 
LRSAM1 
TBCE 
OGG1 
PNRC2 
RANGRF 
LNX2 
AP1B1 
HEBP1 
HNRNPR 
PSMB6 
DGCR6L 
UBE2Q1 
DDRGK1 
PSMC5 
ISCU 
CCDC137 
BLOC1S6 
PWWP2A 
NKAP 
TSPAN17 
MAN1A2 
SDHB 
NIP7 
EFTUD2 
MAPK9 
NECAP1 
C1orf123 
RAB1B 
DYNLT1 
EMC10 
STARD7 
MRPS9 
AKAP9 
PAFAH1B1 
CHP1 
URI1 
AUP1 
LSM4 
KAT8 
BCAT2 
TRAPPC12 
GPR108 
ZNF408 
TRMT12 
EXOC3 
ABI1 
EIF2S1 
KLHL20 
PPIG 
MPC2 
ZNF706 
PPP2R5C 
SMARCA4 
NUFIP2 
UQCRC1 
ZNF397 
WDR41 
RSC1A1 
FRA10AC1 
USP9X 
CCNDBP1 
PSMC3 
FBXO28 
DCAKD 
CCT8 
TAF5L 
NACC2 
MALSU1 
CCDC174 
RRP7A 
SMEK1 
ERP44 
RELA 
ARFGEF2 
ADIPOR1 
MZF1 
MRPL28 
LDHA 
DNAJB12 
ZNF740 
MPDU1 
FYTTD1 
GAA 
PCNA 
PSMD14 
TOMM40 
PTEN 
UBE2V1 
AP3S1 
CLPX 
TMEM192 
MYPOP 
CALM1 
MED4 
MTERFD3 
XRCC6 
METTL18 
ZNF146 
HNRPLL 
NDUFS5 
RAD50 
ACOT13 
EIF2AK4 
GTF2I 
ABCE1 
GHDC 
TRIAP1 
BRF1 
SMG7 
PSMA6 
FAM134C 
LRRC47 
FAM210B 
JMJD6 
UBL5 
FAM168B 
EFHA1 
NDUFC2-KCTD14 
YRDC 
SAT2 
GNB2 
FAM136A 
CCNG1 
ITFG3 
ARFIP1 
NIT1 
EMC4 
GLE1 
CCDC50 
VPS36 
RNF187 
MSMP 
FARSA 
IBTK 
VPS53 
SNRPD1 
MLEC 
LSM3 
NT5DC1 
TMEM168 
RALY 
GOLGA7 
DNLZ 
FBXL3 
METTL2B 
H2AFX 
SNX9 
GTPBP4 
IMP3 
IDH3A 
FAM96A 
SERBP1 
MRPS30 
HMGB1 
DIDO1 
ATP5S 
COA3 
XPNPEP1 
YME1L1 
SYS1 
PRPF31 
C6orf106 
NXF1 
GRWD1 
TRPC4AP 
HINT2 
FBXO6 
ZNF444 
SEC24B 
GTF2H5 
FAM175B 
FARSB 
NUDCD1 
USP4 
TBC1D14 
PARK7 
SGPL1 
SGTA 
ABHD12 
PAIP1 
ACP1 
EED 
PPP6R3 
DYNC1LI1 
HIATL1 
PPP2CA 
HADH 
IFNGR1 
ZNF207 
ASPSCR1 
FAM50B 
RNF14 
DPH1 
TTC7B 
NUDT22 
APTX 
MAGEF1 
SAMM50 
MRPL32 
NME1-NME2 
THRAP3 
FUK 
PARP9 
MAK16 
ZSCAN21 
TFIP11 
SEC31A 
MAP4K4 
ABHD16A 
SEC16A 
PIK3R4 
NDUFS6 
MRPS33 
IRF2BP1 
RNASEH1 
SYVN1 
MAP2K2 
TAZ 
CHCHD5 
ZNF3 
TCEB3 
RPL10A 
TUBA1B 
MPI 
SCAP 
EIF4G1 
ZNF668 
SEC11A 
PSMD11 
TOMM6 
NTAN1 
PDHB 
TMED9 
SUB1 
SDHC 
MAGOH 
OLA1 
RIOK1 
TMEM128 
CLNS1A 
C3orf38 
HMOX2 
RAP1A 
VAMP3 
SCARB2 
MZT2B 
TMUB2 
NAMPT 
GOLGA3 
C6orf120 
LSM7 
CCDC12 
HYPK 
WDR24 
HMG20B 
NHP2 
PAPD4 
TRAPPC6B 
EXOC7 
PDCD6 
TMED7-TICAM2 
SYF2 
MBD3 
POMP 
ZNF143 
SMC1A 
GALNT2 
PUM2 
ORMDL2 
GABPB1 
HDAC2 
ENOPH1 
PAF1 
FAF1 
TLE1 
URGCP 
TMCO1 
MED10 
CSTB 
TRIP4 
GFM1 
PDE12 
ECI2 
MECP2 
ITCH 
SRP72 
GOSR2 
UCHL3 
AFTPH 
TXNDC17 
TPP2 
BANF1 
PIGP 
ASCC3 
ATP5A1 
KIAA2013 
HSPA8 
NSDHL 
PIK3R1 
POLR2H 
EIF3G 
NSA2 
ZNF394 
RBBP4 
EAPP 
DNAJA3 
GLTP 
NRBP1 
YIPF1 
C3orf37 
MRPS21 
ANKRD39 
CERK 
CHD1L 
HADHA 
RBM14-RBM4 
ITGB1 
NAA15 
TCF12 
ZBTB33 
C1orf174 
FAM35A 
CBX3 
ZNF518A 
C16orf72 
RSAD1 
TAF10 
CCPG1 
NR1H2 
MTO1 
BUB3 
C8orf82 
KIAA1919 
FAM108B1 
CXorf56 
GGT7 
TMED4 
MCM3AP 
SLC46A3 
C7orf49 
CHCHD3 
SNX4 
POP7 
SYNCRIP 
STAU1 
MRPL3 
EIF2AK3 
SPHAR 
DDX41 
ARCN1 
FTO 
KCMF1 
UBR7 
NDUFS8 
ACSL3 
ZRANB1 
PTPN11 
GOLGA5 
MED8 
YY1AP1 
RAB2B 
FAM174A 
LRRFIP2 
WIPI2 
FOXP4 
C7orf50 
EIF4A3 
AES 
NUP107 
CYFIP1 
MRPL33 
TMEM189-UBE2V1 
HSPE1-MOB4 
RPL35 
JMJD7 
KDM2A 
UBE2L3 
PNKP 
SAP30BP 
ABHD10 
SRR 
NDUFB6 
YIPF4 
AKR1A1 
EIF5 
GNL3 
LAGE3 
HEMK1 
MTFR1L 
ARL5A 
TMX4 
DNAJC2 
COPS4 
KIAA0195 
POLK 
ACTR1A 
PIGT 
GANAB 
ANP32A 
C4orf52 
JTB 
UQCRQ 
MRPS7 
PSMB5 
JMJD8 
WDR74 
BRIX1 
ZNF131 
ANAPC7 
CASP9 
NFX1 
PEX14 
CXorf40B 
UCK1 
UBE3B 
ARL1 
KIAA0319L 
TMLHE 
FNTB 
TMEM134 
LIG3 
PPP1R11 
MED19 
ME2 
ZFYVE27 
LAMP1 
TMEM167B 
DLD 
NACC1 
SLC38A2 
BOLA3 
PPP2CB 
RBFA 
NMD3 
ZNF41 
EGLN2 
MFN1 
TCTN3 
HMGXB3 
U2AF1L4 
UPF2 
RNF220 
PFDN6 
RBM15B 
GORASP1 
MEPCE 
POLR3C 
MAGT1 
FKBPL 
LRRC40 
LRRC59 
COPS6 
UBALD1 
MAPK6 
MKKS 
G3BP1 
BSDC1 
BRMS1 
MGME1 
MAP2K1 
TRMT1L 
DNAJC9 
VPS29 
SEC62 
VPS25 
WIBG 
MAPKAPK2 
FEZ2 
CHID1 
NDUFC1 
ARIH2OS 
CANT1 
EXOSC7 
NOP9 
THAP5 
HERC4 
SLTM 
WBP1L 
GCLM 
ARF1 
CHPT1 
MRPS18A 
MRPL54 
HIVEP1 
ATRN 
TMEM70 
RAB2A 
UBC 
MPND 
UQCRHL 
PXMP4 
ATP5J2 
MSANTD3 
ATP6V1H 
C9orf64 
SEC61A1 
PSPC1 
PINX1 
TMEM248 
ATG16L1 
SURF6 
PNPO 
SF3B4 
HSBP1 
MRPL45 
DPY30 
C12orf10 
CUTA 
PREP 
FAM96B 
PPP2R2A 
LIPT1 
SFSWAP 
SRSF7 
CLTB 
SLC41A3 
SLC25A26 
PHC2 
SEC61G 
COPB2 
OTUD5 
CPSF7 
CISD1 
ALKBH2 
EXOC4 
PPIL4 
EIF2AK1 
ZNF687 
RHOA 
EIF5B 
GPAA1 
MPG 
EIF3E 
ULK3 
DPH5 
ZSCAN32 
APOA1BP 
WRAP53 
CBX5 
N4BP1 
MIER1 
UFC1 
TM9SF1 
HARS 
AGFG1 
EXTL3 
C20orf24 
MRPS12 
SEC63 
KIAA1430 
EIF5AL1 
CCDC130 
MRPL23 
ZXDA 
ILVBL 
WDR33 
PEX11B 
OVCA2 
CLINT1 
CSRP2BP 
C22orf28 
RSBN1L 
PIGY 
GSK3B 
NHP2L1 
H2AFY 
NAE1 
ZFPL1 
ANKRD28 
UBOX5 
RBM12 
GFOD2 
ODC1 
INSIG2 
PPP1R15B 
AP3M1 
UPF3B 
BPGM 
PSMB7 
BLOC1S4 
SMCR7L 
TTC32 
WDR70 
NCOA6 
SDCBP 
STT3A 
NUP133 
GTF3A 
TCEB1 
NUP153 
ALKBH1 
DDX19A 
GGNBP2 
TCF20 
ZNF384 
USP8 
CTTN 
ASB8 
ZNF347 
FCF1 
PELP1 
POLR2C 
PYCR2 
PCYOX1 
SDHA 
SDCCAG3 
MDP1 
TOR1AIP2 
RAB5A 
MED11 
RPRD1B 
SRSF10 
DCAF5 
SART3 
MXD4 
ESD 
USP10 
WWP2 
HNRNPUL1 
NCOA1 
ANAPC10 
CRIPAK 
ETF1 
TOMM70A 
CHCHD4 
CCNK 
MCM7 
SRPR 
PDAP1 
ATPAF2 
WDR81 
POLR2E 
PEX2 
NUP85 
CPNE3 
PIGU 
ATP5G3 
NEDD8 
MRPL21 
SPG7 
RTFDC1 
MAX 
PIN1 
C2orf74 
DNAJC17 
SMARCA2 
CHCHD7 
IARS2 
DDX3X 
AKT1 
TXNRD1 
XPOT 
PDCD6IP 
CD82 
ARFGAP2 
TFAM 
ATXN7L3B 
PITPNA 
HECTD3 
SMARCB1 
MITD1 
GOLGA1 
PFDN4 
TPRKB 
CENPT 
TSPAN31 
EPRS 
TMEM115 
LAP3 
USP22 
GCC1 
TM2D3 
PWP2 
C1orf122 
E2F4 
ATL2 
HAT1 
MRPL38 
RAF1 
C22orf29 
UPRT 
TNKS2 
DDX39B 
AKIRIN2 
TRAPPC8 
ITPA 
UBL3 
COQ5 
UBTF 
PAGR1 
NDUFA3 
TPRN 
UBXN6 
YY1 
SSRP1 
SIL1 
MNAT1 
SRP68 
SRP19 
PNN 
C6orf136 
RBX1 
SSR1 
TNFAIP8L2-SCNM1 
TOR1A 
RBM5 
GID8 
QTRT1 
IBA57 
TMEM120A 
ATP5D 
LIN37 
TRUB2 
RBMX 
RPN1 
MRPL24 
NARS 
C9orf16 
TEFM 
ATP5SL 
NSD1 
HELZ 
PEF1 
CCDC22 
ZNF764 
ITM2B 
GTF2F1 
HAGH 
RER1 
TMEM127 
METTL23 
COX5B 
RHBDD3 
MFAP1 
RBBP7 
NT5C 
BRD2 
PRPF3 
P4HTM 
ACOX1 
NDUFB4 
C17orf51 
UTP15 
TSTD2 
FKBP8 
VTI1B 
PRDX5 
KLHL25 
CUL2 
TMUB1 
TMEM141 
SNW1 
IPO8 
RSRC2 
WTAP 
TBC1D7 
DHPS 
MRPL22 
WDR1 
TXNDC11 
TSEN15 
SMUG1 
PNKD 
GINM1 
C3orf17 
ZC3H11A 
DDX23 
NTPCR 
GALT 
PPP1R8 
GTPBP10 
LIG4 
TSTA3 
FOXK2 
MRPL20 
RPA2 
DARS 
SNX19 
MIIP 
PHF5A 
PHAX 
RFC1 
YIPF5 
NPRL2 
CREB3 
DNM1L 
SLC35A4 
SRSF8 
ANAPC13 
POLDIP3 
ASCC1 
PLIN3 
WBP2 
STAMBP 
BCS1L 
RPF1 
RBM4 
VPS52 
HMBS 
DDX42 
SIKE1 
WDR44 
NUB1 
C18orf25 
DDX10 
CHCHD1 
DR1 
VAC14 
ZMYND11 
SIRT6 
SCRN3 
CCNL2 
C14orf1 
HNRNPU 
ULK1 
TUBB 
STIM1 
COX16 
DHX29 
MBD1 
C20orf111 
LPIN1 
HPS6 
PWP1 
CELF1 
TMEM106C 
CALCOCO2 
C21orf59 
NFATC2IP 
ATIC 
CEBPG 
C16orf91 
CTNNBIP1 
TMEM185B 
ABHD4 
NDUFB8 
MTM1 
POLL 
GTF2B 
ERCC1 
TAPT1 
UBP1 
PYURF 
MCMBP 
PACSIN2 
UBE2A 
PEPD 
SEC24A 
KIAA1191 
EXOSC1 
RTCA 
RNF10 
ARF6 
RBM15 
GPN1 
FBXO45 
POM121C 
FAM73B 
YIPF6 
TSG101 
PMS1 
DDX27 
HDLBP 
NDUFV1 
CDK8 
AP3S2 
NDUFB10 
CWC25 
DHX32 
ZC3H13 
PRPF8 
STRIP1 
DENND1A 
PGP 
RNASEK 
E4F1 
SNRNP25 
LSG1 
YWHAB 
MXI1 
IVNS1ABP 
TM9SF2 
RBM19 
ASB6 
STYXL1 
GTDC2 
KAT5 
MAPRE2 
PDHX 
PHF20L1 
DUSP11 
PPIF 
OGFR 
DCTPP1 
KBTBD4 
TRAPPC11 
SON 
UBE2E1 
CLTC 
SNAP47 
SMU1 
ACSS2 
BBS4 
MTMR1 
LACTB 
AASDHPPT 
PI4KA 
GTF3C2 
SGK196 
CAMTA2 
UBQLN4 
UBA2 
SCAF4 
TPGS1 
SEC22B 
DCTN4 
MPLKIP 
AAAS 
TRIM56 
SCP2 
ATP6V1E1 
MNF1 
ZFAND1 
SCAF1 
KTN1 
SCRIB 
ZNF814 
SIRT3 
PLGRKT 
IRAK1 
CKAP4 
HAUS7 
HEXA 
RABEPK 
TXNL1 
JKAMP 
POLR3GL 
KHNYN 
ABHD13 
TM9SF3 
COQ6 
C18orf32 
UBB 
PITHD1 
RRNAD1 
NDUFA7 
BECN1 
CHAMP1 
DDX21 
PA2G4 
FDFT1 
ACOT8 
RNF7 
PPIH 
PIH1D1 
MGST3 
PAICS 
ADIPOR2 
DAGLB 
PPA1 
UBR2 
PI4K2A 
MRPL43 
RAD23B 
RBM39 
TOPORS 
TIMM8B 
EBNA1BP2 
ACTR1B 
AHSA1 
C19orf53 
IP6K2 
SPNS1 
C12orf23 
ZNF561 
TMEM5 
LRRC57 
OAZ1 
MAPK1 
ELP3 
BLOC1S3 
KIAA0947 
SZRD1 
FAM199X 
NEU1 
TUBD1 
FBXW2 
SERPINB6 
HTRA2 
ZBTB18 
DHX30 
NUBP1 
ERO1L 
SCOC 
HUS1 
HYOU1 
AAMP 
NAA10 
CRBN 
SMNDC1 
KHDRBS1 
RPAIN 
RIPK1 
RDX 
ALG5 
FIZ1 
STX10 
TAB1 
MRI1 
SURF1 
PTPMT1 
ADPRHL2 
MPV17L2 
CEP57 
C6orf57 
WDR77 
MCOLN1 
MRPL47 
BAG6 
RHBDD1 
FAHD1 
LETM1 
PRPF6 
MRPL2 
LUC7L3 
C14orf166 
WDR55 
PHRF1 
MAN1B1 
TOMM7 
THOC7 
MAPKAP1 
FOPNL 
SCFD2 
TOP2B 
MARK4 
SUPT4H1 
TGIF2-C20orf24 
DNAJC21 
ENDOG 
KRR1 
GABARAPL2 
ZSCAN29 
PGPEP1 
WBSCR22 
MRPL13 
XPO1 
FNTA 
VIMP 
NELFB 
ATP5O 
M6PR 
CLCN3 
PPP4R2 
PSENEN 
C8orf33 
APH1A 
TCF25 
SNRPG 
CRNKL1 
CRKL 
ATP5L 
PIGF 
ELAC2 
CSNK1D 
MED29 
DHX16 
PIGX 
INTS10 
PROSC 
RNF121 
ATG5 
TMEM214 
ERLEC1 
PPP2R5E 
DUSP22 
UBFD1 
TIAL1 
SUCLG2 
STX8 
PEX12 
OSBPL9 
LRPPRC 
WDR45B 
MED20 
MTMR3 
NEK4 
MAD2L1BP 
THAP4 
C2orf69 
NELFCD 
FAM149B1 
USP25 
MED7 
ZNF622 
NFKBIL1 
EIF2A 
STOML2 
TFDP1 
TTC19 
CC2D1A 
ASF1A 
GLT8D1 
DEF8 
ZBED6 
UBL7 
STARD3 
GABARAP 
ACLY 
MAN2C1 
UQCRB 
ZFR 
APEX1 
NAA20 
PIGS 
MTA2 
RANGAP1 
CRELD1 
CAPZB 
YTHDF1 
EFTUD1 
ZGPAT 
IMP4 
DCTN6 
FBXO3 
EIF1B 
FAM32A 
MRPL42 
QSOX1 
CNOT11 
MTIF3 
LOC729020 
TEX2 
USF2 
C3orf58 
XPA 
AP2A2 
DENR 
SH3BP5L 
SBDS 
LSS 
PLRG1 
ARHGEF11 
CYB5R3 
VTA1 
C11orf57 
RPL30 
KARS 
CDC37L1 
CORO1C 
PPP6C 
N4BP2L2 
WDR18 
HDHD3 
ARMC8 
YIPF3 
HEXDC 
ZMAT5 
ITPKC 
FAM177A1 
EPC1 
UBE3C 
ZCCHC3 
LIN54 
PDK2 
GALNS 
CHST7 
MSH3 
MPPE1 
KDM5C 
RINT1 
GUK1 
TMEM106B 
MED16 
DCTN3 
ASNA1 
GNS 
ATP5C1 
C18orf8 
LMO4 
DCUN1D5 
ANP32E 
PSMG2 
TMEM39A 
ENTPD6 
RBM41 
SLC27A4 
ACAD9 
SEC23IP 
CASC3 
RAPGEF1 
ATP5H 
ATP5G2 
RPS24 
BLOC1S2 
HSPA5 
SUPT7L 
CTBP1 
SCYL3 
WARS2 
MRPS18B 
ATG7 
RBMXL1 
GSTK1 
RFT1 
MED24 
OCEL1 
CYP2U1 
BLZF1 
PSMA5 
DCTN2 
ILKAP 
NSMCE1 
PSMD9 
EIF3H 
FAM50A 
ZNF644 
ERCC2 
TMX1 
PSMG3 
MID1IP1 
ABCF3 
ZNF623 
METTL5 
UTP3 
CNBP 
HNRNPAB 
RPL34 
PRDX2 
RP9 
LAMTOR3 
USP33 
CDK2AP1 
UPF1 
TMEM199 
TMEM55B 
GPI 
WDR36 
CHMP6 
RNF185 
FAM3A 
RBCK1 
PTP4A2 
STAT3 
EWSR1 
CNOT7 
ATG12 
RANBP1 
TUT1 
TBK1 
BRAT1 
PRRC1 
SLC35F5 
RNF141 
RRM1 
STAM 
ACVR1 
MLST8 
MMADHC 
C10orf2 
C11orf83 
PITRM1 
LARP1 
GNPDA1 
LMAN1 
PDP2 
MLLT1 
NAA60 
PSMC4 
WAC 
MAPK8 
C17orf70 
POLR2L 
RPS6KA3 
STX5 
CYB5D2 
MED31 
OCIAD1 
TAF9 
ROMO1 
PRKAR1A 
ZNF76 
ABCB10 
METAP2 
KLF3 
NDUFS2 
CRTC2 
MEF2A 
TALDO1 
EEF1B2 
HNRNPL 
TRIM65 
RPP38 
HNRNPA2B1 
RAB5C 
TMEM81 
PHKB 
FADD 
NMRK1 
TAF1D 
NUP54 
MRPL35 
NR3C2 
PET117 
ATG4B 
COMMD9 
POLR2F 
DPP7 
VCP 
C14orf142 
C12orf44 
POLR2B 
RXRA 
CASP7 
SKP1 
ECSIT 
MOGS 
ST6GALNAC6 
ZNF513 
POLR3K 
REEP3 
DUT 
CSTF2T 
UBE2G2 
SCAMP3 
ZFP91 
ZNF593 
YTHDF3 
PICALM 
UBA52 
ZNF654 
MKI67IP 
C8orf40 
NOL11 
PUM1 
CDK9 
APEX2 
GGCT 
ATP6V0D1 
TXLNG 
DYM 
RMI1 
RFXANK 
ADI1 
FTSJ2 
PDGFC 
CRADD 
TADA1 
PSMA1 
SMPD1 
SPECC1L 
MAN2B2 
ZNF491 
PRKACA 
MLF2 
PABPN1 
KBTBD7 
RPP25L 
RBM10 
UFSP2 
NPC1 
FECH 
FAM98A 
ZHX1 
CDK12 
PPFIA1 
TRAPPC3 
GTF2F2 
CCT4 
ORC4 
EXOSC8 
PCIF1 
ATRAID 
LUC7L2 
KLHL5 
MIS12 
MRPL19 
LIAS 
TRIM27 
DSCR3 
IRF2BPL 
NUDT2 
NIPA2 
DPAGT1 
TTC9C 
WDR5B 
UBE2F 
CEP63 
SNRNP200 
DAZAP1 
PSMD2 
AZIN1 
AKAP8 
SMARCE1 
PAK1IP1 
FBXW11 
ZDHHC14 
ATXN1L 
PSMD12 
SCNM1 
PUS3 
PTCD1 
PHF23 
TM2D2 
CCDC51 
LINS 
SMAD4 
SF3B5 
TMEM57 
SMARCAL1 
ZNF7 
CHRAC1 
GNB1 
RSRC1 
PSEN1 
SARS 
SRRD 
ENTPD4 
FAM120A 
CTCF 
C6orf89 
MSH6 
LRFN3 
FLCN 
TMEM59 
JUND 
SLC35E1 
NSUN2 
LSM6 
DHX36 
DROSHA 
MRTO4 
TPD52L2 
USP27X 
MCTS1 
ATXN2L 
SCO1 
ENSA 
RAB11A 
USE1 
C17orf85 
FBXO38 
C1orf43 
POLH 
SERTAD2 
MIF 
TOP1 
PRPS1 
FBXO11 
TOR3A 
RING1 
MARCH6 
RAB5B 
CSNK2B 
CCDC59 
EPN1 
DCAF8 
NAP1L4 
TAMM41 
CDYL 
ZNF24 
TMEM187 
EIF1AD 
NARF 
HARS2 
TMEM126A 
NGLY1 
BSG 
CHD4 
ZNF639 
ARPC2 
IRGQ 
ATMIN 
APOOL 
TYK2 
ILF2 
KIAA0196 
NOA1 
ASH2L 
MMS19 
AARSD1 
TIMM17B 
EAF1 
KANSL3 
RALBP1 
FIBP 
COQ2 
APIP 
ATP6V1F 
ZRANB2 
TDRD3 
ZDHHC16 
EIF3D 
NCBP2 
GATC 
FAM120AOS 
TUFM 
SETD8 
ASB7 
IP6K1 
GTF2H1 
GSS 
ZNF281 
TSFM 
ZNF649 
CUL1 
CD46 
GPHN 
RPUSD3 
RPL8 
IREB2 
AP3D1 
MGAT2 
TRAPPC1 
ACTR5 
HGS 
NOP16 
TEF 
CUL4A 
MRPS10 
RRP36 
MPHOSPH10 
IFRD1 
R3HDM2 
BCKDHA 
ASXL1 
MUT 
ARMC7 
ZMPSTE24 
WDR83OS 
ZFAND2B 
TRIM39 
TMEM258 
ARMC1 
SDE2 
CECR5 
TMCC1 
GPS1 
NFYB 
MAVS 
DNAJC11 
COPS3 
NCLN 
SLC39A3 
CCNY 
SMAP1 
PEX13 
DIABLO 
TIMM10 
ZNF830 
UBE2V2 
BRK1 
SOCS4 
FAM122A 
MRPL14 
DAG1 
CISD2 
UNC50 
TSSC4 
BMS1 
SELO 
UFL1 
MLLT10 
OXNAD1 
KLHDC2 
HAUS3 
ATP5F1 
CHCHD2 
ABCB7 
PHB 
SUCLA2 
COG3 
ZC3H15 
JAK1 
WDR26 
ELOVL1 
NDUFA6 
ITFG1 
ZNF189 
STK11 
NFE2L2 
DLST 
DIRC2 
CALU 
CMC2 
SHOC2 
PAXBP1 
TIMMDC1 
CBR4 
NSFL1C 
TMEM177 
C6orf226 
CHD8 
SLC35A2 
OSGEP 
GALK2 
PEX1 
ZMAT2 
VAPA 
NSUN5 
LEPROT 
METTL17 
SDAD1 
C11orf24 
METTL3 
ZNF330 
PSMD5 
TMEM259 
POLE3 
MRPS31 
SSR2 
TDP2 
SPCS3 
SAV1 
ZNF174 
MSL3 
DERL2 
ACAP3 
SNRNP27 
ATXN7L3 
PMF1-BGLAP 
FASTKD2 
FAM178A 
TXNDC12 
FAM108A1 
STK16 
ZFAND3 
REPIN1 
TFPT 
WDR46 
MYO1E 
MRPL51 
SLC30A1 
ZNF419 
NCOR1 
TPI1 
SPATA5L1 
MTFMT 
PPHLN1 
ELK1 
TANGO6 
EIF2B2 
SLC25A44 
UBE2N 
USP5 
C9orf69 
STX17 
MFSD12 
SRP9 
PSMA3 
ZFAND6 
NDUFAF4 
WDR85 
NOL12 
RBM27 
ZBTB21 
DLG1 
TSR3 
TAF13 
GTF2A1 
NFKBIB 
MARCH5 
SLIRP 
NISCH 
ZNF688 
LRRC28 
ZC3H7A 
RAB1A 
TFG 
USF1 
VMA21 
CPOX 
GRPEL1 
DNAJC3 
NENF 
HMG20A 
H1FX 
ALDH3A2 
ACVR1B 
SREBF2 
RFK 
VRK2 
CPSF2 
BCKDK 
STOM 
NUDT15 
MARS 
CCDC25 
SYNJ2BP-COX16 
CCDC92 
PDZD8 
TMEM41B 
SETD3 
SEC23A 
SLMO2 
FBXW7 
FBXL17 
C6orf47 
EIF3I 
ZNF48 
MARCH7 
SAMD8 
PPCS 
CINP 
LARP4 
ZNF259 
MRPL18 
BCLAF1 
IDH3B 
MIEN1 
GMPPA 
TMEM161A 
OSGIN2 
PGK1 
SCAF8 
YIF1B 
RABGGTA 
RRP8 
WWP1 
PTGES2 
SF3A3 
SF3A1 
FKBP3 
ADK 
NOL8 
PSMD3 
TMED1 
WBP11 
OTUB1 
FLOT2 
PNPLA8 
ANKH 
NPLOC4 
C9orf37 
CDS2 
MRM1 
RIOK2 
GPKOW 
EIF4A1 
TMEM87A 
TMEM230 
NDUFAF2 
SND1 
STOML1 
NOP14 
ZADH2 
GNL2 
YARS2 
NIPBL 
MKNK1 
OBFC1 
RMND5B 
LAMTOR5 
MEMO1 
MRPS17 
STRN3 
TAF8 
NACA 
CCNB1IP1 
LSM14A 
GORASP2 
BABAM1 
ZC3H7B 
AP2S1 
TSEN34 
UQCR10 
SDF2 
SETD5 
GARS 
PCGF5 
ZNF277 
MBNL2 
WDR3 
D2HGDH 
POLM 
MCRS1 
COX14 
GTF3C6 
VBP1 
ATP6V0E1 
CHERP 
RBM14 
PET100 
NDUFB9 
GATAD2B 
SNRPC 
TMEM205 
CTNNA1 
TMEM33 
TUSC2 
MCAT 
FBXW5 
PRPF4 
UTP23 
ST3GAL2 
PRDX6 
VPS18 
NUTF2 
SUMO3 
RNF31 
CSGALNACT2 
STX4 
ATP6V0A2 
C2orf76 
FAM63A 
TEX261 
MTCH1 
LSM2 
MIB1 
EHMT1 
FAM120B 
TIMM44 
FAM20B 
POLR2A 
ZMAT3 
MTX2 
ATG2A 
TMX2 
NR2C1 
IPO7 
CDK16 
MRFAP1L1 
SMAD5 
SRSF11 
TSR2 
FAM200A 
ALG11 
NTMT1 
SNRPD3 
NOP10 
C18orf21 
CRIPT 
CISD3 
TRIM3 
SEC61B 
METTL13 
DDX54 
U2AF2 
NAA50 
TPCN1 
PPP6R2 
ZNF641 
TRMT10C 
NBR1 
CCT5 
LSMD1 
AURKAIP1 
EIF5A 
PIGH 
C17orf49 
CHMP2A 
NOP56 
RPL14 
COX4I1 
SNF8 
ATP6V1D 
COMMD10 
TMEM203 
NDUFA2 
ABHD8 
MBTPS2 
LOC100289561 
ZCRB1 
COPS8 
SENP6 
TMEM14C 
MRPL52 
WAPAL 
UBXN4 
PRR14 
RBM34 
SSSCA1 
PPWD1 
SNX12 
CARKD 
TTC33 
RCAN1 
LTV1 
TRIP12 
MTRR 
PARL 
KIAA1967 
DDX56 
PSMD10 
C11orf73 
CAPN7 
PMPCA 
MFAP3 
WSB2 
YKT6 
ERICH1 
RPS6KB1 
TERF2 
NCSTN 
TMEM189 
ATG4D 
ANKRD10 
CASC4 
UXT 
UBE2J1 
HEATR2 
PLD3 
PTRH2 
FAM114A2 
DOHH 
CNNM3 
CTDSP2 
DENND4A 
RNF103 
SOCS6 
SRA1 
LAPTM4A 
METTL16 
MRPL9 
DHX8 
MRPS14 
CYB5B 
CENPB 
BIRC2 
TIMM10B 
LARP7 
DOLK 
LYRM4 
ZNF181 
RAN 
SF3B1 
PI4KB 
TMEM129 
DCUN1D4 
NME3 
BAG4 
PSME1 
PGAM5 
RNF167 
NDUFA5 
MTFR1 
C7orf55-LUC7L2 
TRA2A 
KIAA0391 
MRPS15 
CMC1 
ERCC5 
PMF1 
DHX38 
GSPT1 
NELFE 
TMEM41A 
CSNK2A3 
TFE3 
SRP14 
OAZ2 
SSU72 
CANX 
SMPD4 
KHSRP 
RPS13 
SET 
PSEN2 
GNPTG 
BMI1 
EMC9 
CIAO1 
UXS1 
XPO7 
RIOK3 
TFB1M 
DEDD 
TFB2M 
CXorf40A 
DHRS7B 
GPS2 
RNF111 
C19orf60 
SNAPC5 
KLF9 
YPEL2 
ATF6 
C1orf52 
GPX4 
ARHGAP35 
IKZF5 
SGMS1 
SSB 
EEF2 
PRDM4 
PPP4C 
SNX17 
TXNDC15 
NAPA 
ACOX3 
TMEM66 
DCAF10 
ZNF142 
COX19 
ORMDL3 
USP19 
FAM104B 
AP3B1 
AKIRIN1 
ARPC5L 
MARCH2 
WBP4 
PCNXL4 
MRPL15 
WRNIP1 
YARS 
VPS4A 
PDE6D 
TBCCD1 
SLC35B2 
POLR2G 
RIN2 
PPP2R2D 
TACO1 
TRAF7 
USB1 
GTF3C1 
SNRNP48 
RBM23 
SMIM12 
ADNP 
SMAD2 
JMJD4 
PFDN2 
RNF115 
TARS 
FNDC3A 
SLC35E3 
TXLNA 
HINFP 
BCAP29 
RANBP2 
ABCD3 
CCDC23 
UBL4A 
TIMM17A 
FTSJD1 
COX7A2L 
SEC22C 
PIGW 
SELT 
TAOK2 
POLR1D 
THTPA 
RANBP3 
SLC48A1 
ALKBH5 
PELO 
AFF4 
RWDD3 
RNF181 
DARS2 
ATP2C1 
TPST2 
ADCK4 
ZSWIM8 
ECHDC1 
SRP54 
FAM208B 
PPP2R5B 
CUL5 
TEX264 
RDH14 
COA1 
PEX19 
PRADC1 
ANXA7 
UBE2D4 
IAH1 
LOC100129361 
C12orf52 
MED6 
HSPBP1 
PCYT1A 
STAM2 
YTHDC1 
SAE1 
UQCRC2 
SIAH2 
ITGB1BP1 
NR2C2AP 
DPH3 
HNRNPA0 
SCYL1 
APOL2 
NUDT21 
CAMTA1 
RBM6 
STRAP 
B4GALT7 
PARP3 
TIPRL 
SMIM8 
TXNDC9 
RAB22A 
WIZ 
ATP6V0B 
CMAS 
GPN3 
SPPL3 
GRHPR 
SKIV2L2 
TBCA 
NUBP2 
ELMOD3 
ANO6 
MRPL48 
ELP4 
SLC30A5 
EXOSC4 
DAXX 
COMMD6 
DNAJC8 
TAF15 
FARS2 
HNRNPD 
EIF4E2 
MIF4GD 
TNFAIP1 
RAB3GAP2 
PPP2R1A 
BCCIP 
GLYR1 
DNAJC19 
PSMG4 
ZBTB45 
ABT1 
MEN1 
RRP1 
UBE3A 
TMBIM6 
CDC42 
NDUFB11 
RXRB 
CAPN1 
RANBP6 
MED13 
LSM1 
IST1 
TOX4 
BNIP2 
RBM28 
SOD1 
PTDSS1 
UBAC2 
GOPC 
RNF216 
CHURC1-FNTB 
TCEANC2 
EIF3K 
UNG 
NFU1 
AGPS 
SETD7 
CDK13 
TSR1 
USP16 
VAMP5 
LPPR2 
C12orf66 
CUL4B 
MBD2 
ZKSCAN1 
TXNL4A 
EMC3 
KBTBD2 
ANXA6 
QARS 
MIDN 
SUPT6H 
ZBTB10 
ZSWIM7 
GPN2 
C10orf12 
HNRPDL 
FDX1 
FEM1C 
MRPS34 
TRNT1 
FH 
SNRPD2 
CCDC124 
GOLT1B 
SPEN 
LSM10 
TERF2IP 
DNTTIP1 
GOLGA2 
COMT 
KPNA1 
PNISR 
ZNF721 
SNAP29 
RPN2 
DHX15 
COPA 
RHOT2 
COPE 
SIVA1 
NONO 
NARFL 
NSMCE4A 
NRIP1 
VPS33A 
RPS23 
NDUFS7 
CRK 
BRF2 
C14orf119 
PFDN5 
ELP2 
SAR1A 
ZNF121 
GNPNAT1 
HAUS4 
HSCB 
FZR1 
PPP4R1 
ERAP1 
SENP2 
TINF2 
TBC1D20 
IDH3G 
CCDC127 
ZNHIT1 
IER3IP1 
ANKFY1 
INVS 
FBXO22 
FAM160B2 
SF3B3 
C12orf45 
PANX1 
NAA38 
TRAPPC9 
DDX18 
C1GALT1 
CERS2 
EXOC1 
DNTTIP2 
ACBD5 
PEX26 
HERPUD2 
SIRT5 
PEX16 
NXT1 
ZNF805 
ZNF326 
MEF2BNB 
SRRM1 
TIGD6 
ZNF526 
KANSL2 
ELF2 
CLK3 
COPB1 
CCAR1 
NIF3L1 
IWS1 
ZNF91 
PNPT1 
EMD 
NDUFA11 
DRAP1 
MSRA 
PEX6 
RPP14 
MAP1LC3B2 
UBE2K 
ZNF280D 
LRRC42 
WDR13 
RGP1 
CNOT4 
IMPAD1 
KLC4 
TMEM60 
FAM206A 
OGFOD1 
LUZP6 
C7orf26 
ANKHD1 
MCFD2 
MED14 
RAB40C 
CAPNS1 
PBX2 
CCNL1 
VTI1A 
LGALSL 
TBCD 
ZBTB5 
ANAPC16 
PHPT1 
UBQLN2 
TVP23B 
WDR75 
KCTD6 
CASP3 
ATOX1 
TP53RK 
FPGT 
RSL1D1 
PSMA4 
WTH3DI 
NDUFB7 
ZNF598 
MRPL37 
HCFC1 
RBM33 
YIF1A 
FTSJ1 
PRPF18 
PCSK7 
THYN1 
SNUPN 
PATL1 
EFCAB14 
CMC4 
CSNK1A1 
TMEM9 
ZDHHC3 
SENP3 
TRNAU1AP 
SNAP23 
ERH 
UBE2NL 
RNPEP 
SMG8 
TMEM64 
DPH2 
KIAA1586 
TRIM41 
FUBP1 
SEC24C 
VPS37A 
HMGXB4 
NSUN6 
ETFB 
APEH 
SUMO1 
EDC4 
TUBGCP4 
ALS2 
ZNF195 
CLOCK 
EMC2 
METTL21A 
MGMT 
TBRG4 
CCNH 
ARMC6 
ANP32C 
DBT 
ATF4 
THOP1 
LMBRD1 
CSNK1A1L 
MRPL30 
FTSJ3 
RHOB 
POMGNT1 
SEL1L 
H2AFZ 
GNE 
ZNF480 
NDNL2 
HNRNPK 
COPS7B 
RSPRY1 
TTI1 
PEX11A 
SLC25A38 
MFSD3 
PCMT1 
PTOV1 
UBE2J2 
TBC1D23 
MTCH2 
CCT6A 
PRKAG1 
MTPAP 
INO80E 
EDF1 
GDPGP1 
KIAA0141 
SRPRB 
ZNF37A 
UBQLN1 
CHMP4A 
HNRNPH1 
C16orf62 
C12orf29 
WDR6 
PCBP2 
PDLIM5 
CIRH1A 
SNRPB 
PRPF19 
PLEKHJ1 
SERINC1 
DDX24 
BRPF1 
HIBADH 
WDTC1 
RIC8A 
ZC3H10 
XPC 
ASUN 
DUSP16 
TNIP1 
ZNF576 
AKT1S1 
OPA3 
NOLC1 
RNF34 
EBAG9 
FBXL5 
RAB3GAP1 
PNO1 
ERGIC3 
SAMD1 
MRPL12 
MRPL44 
TBC1D22A 
HDDC3 
EXOC8 
LMF2 
SNRNP40 
C4orf27 
ATP5B 
PINK1 
CIB1 
RB1CC1 
TMPO 
PTRHD1 
ADCK2 
SKIV2L 
ITPRIPL2 
NDST1 
SNX6 
SAP30L 
TBC1D15 
BLMH 
TTC37 
CDC40 
REEP5 
PIK3CB 
C15orf57 
TBRG1 
NCAPH2 
BCL2L1 
ALYREF 
SSR3 
ARHGAP5 
C6orf62 
CEP104 
ZBTB1 
INPP5A 
FAM173A 
FAM192A 
CCBL1 
MRPS23 
GLTPD1 
HNRNPF 
CD63 
NDUFV2 
TATDN1 
THUMPD3 
SENP5 
PEBP1 
MCEE 
TRAPPC13 
CNOT3 
EIF2B3 
DNAJC7 
DFFA 
ALAD 
PPM1B 
MTDH 
AIP 
LYSMD4 
UBA3 
SH3GLB1 
METTL20 
LONP1 
COPS7A 
ELP6 
TIMM22 
EEFSEC 
LRRC14 
TCP1 
DERA 
PRPSAP1 
PUS7 
CCM2 
ICK 
PURB 
ECI1 
TMEM63B 
MZT2A 
TNPO3 
PARN 
RTN4 
TTC4 
AZI2 
POFUT1 
NFYC 
IDE 
HSPA9 
SSBP1 
BCL7B 
PIP5K1A 
GADD45GIP1 
DNM2 
GPBP1L1 
HNRNPH2 
CWC15 
HDAC6 
PITPNB 
STT3B 
GRINA 
RPAP3 
GTF2H4 
STIP1 
YTHDF2 
CSNK1G3 
HSD17B12 
DNASE2 
IPO9 
RNF5 
ARFGAP3 
C12orf65 
RNF25 
LHPP 
ZNF770 
DEK 
MSRB2 
CDIPT 
SUN2 
GSTO1 
RARS2 
ZCCHC7 
ALDH9A1 
SREK1IP1 
ZNRD1 
EMC1 
CHST12 
TYW1 
TFCP2 
SCO2 
C19orf70 
SRSF2 
SPTY2D1 
MTMR6 
POLR2I 
IRF2BP2 
VDAC3 
FAM162A 
PPID 
ATP6AP1 
PQLC2 
SDCCAG8 
TMCO3 
LAMTOR2 
DLGAP4 
ABCF2 
MRRF 
TNPO1 
RFC2 
PQLC1 
ZSWIM1 
RFWD2 
SPATA2 
SLC25A32 
HSD17B4 
CHTOP 
PCNX 
WDR25 
C8orf76 
BNIP1 
C22orf32 
MUS81 
KPNB1 
PANK4 
NDUFS4 
FBXW4 
RBAK 
CDK4 
UTP11L 
NRDE2 
HERPUD1 
PPP1CA 
MAT2B 
HIGD1A 
CYHR1 
PCM1 
TMEM42 
TOB1 
ISY1-RAB43 
BOLA1 
BRD4 
ZC3H3 
AP2A1 
SLC25A28 
DCAF7 
ANKHD1-EIF4EBP3 
MFF 
ZNF322 
CAPZA2 
PQBP1 
ARL14EP 
ZBTB25 
POLG 
MAN2A2 
UQCR11 
PAIP2 
NUDT3 
RAD51C 
TOMM22 
ZDHHC5 
TRAPPC4 
TRMT112 
UCK2 
EIF3B 
RNF6 
HN1L 
UFD1L 
ZNF226 
RBM17 
HIGD2A 
C7orf73 
RRN3 
PLBD2 
RPL31 
VPS51 
LRRC41 
PUSL1 
MRPS24 
RFC5 
SCAF11 
MYNN 
LYSMD3 
COMMD3-BMI1 
ZNF638 
LYRM5 
PUF60 
ERAL1 
XRCC5 
UBE4A 
PPARD 
ARMCX3 
MKRN2 
FASTK 
ASNSD1 
RPS5 
PGLS 
ZFYVE19 
SAP30 
WDR89 
TELO2 
TCAIM 
KIAA0100 
HIST1H2BC 
RPL4 
CC2D1B 
GBA2 
CPD 
CDV3 
NUDCD2 
ZNF691 
BAD 
GBF1 
AAGAB 
ACTR8 
CRCP 
CPNE2 
PSMD7 
TRPT1 
C1QBP 
THAP7 
AKTIP 
TMEM131 
ATG3 
RPP30 
PIGG 
CCDC47 
ESF1 
NIT2 
MRPL41 
MORC2 
DERL1 
RNF13 
ARHGEF10L 
NPC2 
NDUFA4 
NOP2 
TCERG1 
RWDD1 
C12orf57 
HS6ST1 
LEMD2 
TMEM50A 
DAD1 
UBE2W 
FBXO7 
TMED5 
SYMPK 
FUNDC2 
FBXO18 
SUPV3L1 
ZNF22 
COMMD3 
ZHX3 
UBE4B 
TMEM101 
PCF11 
OGFOD3 
ZNF32 
MRPL50 
AGGF1 
RARS 
COMMD1 
TBCB 
CIR1 
RPF2 
EXD2 
C2orf49 
RAB11B 
EDEM3 
HP1BP3 
EXOC2 
ZDHHC8 
GNPAT 
PHF10 
ZCCHC11 
CCDC90A 
CDK5RAP1 
GPATCH4 
METTL14 
CIC 
NARG2 
EIF2B5 
CLTA 
RNF113A 
DDB2 
PIGK 
DALRD3 
C6orf1 
WRB 
DNAJC14 
GRAMD4 
CHMP2B 
RPL27 
MRPS11 
FAM134A 
CTNNB1 
CTSD 
ATP6V0C 
OPA1 
SNX25 
MCPH1 
QRICH1 
MYEOV2 
DCTN5 
GSK3A 
ACSF3 
TANGO2 
DDX1 
ATG13 
NOL7 
EIF3A 
TAPBP 
COG2 
HUWE1 
ATE1 
NEIL2 
PSME3 
UBE2H 
RNF40 
TOLLIP 
INF2 
CCDC71 
ZNF414 
MBD4 
MRPS25 
NUDC 
UBE2M 
JAGN1 
MRPS35 
PIGC 
TNRC6A 
PSMB3 
RAB9A 
ABHD14A 
TLK1 
MICU1 
DDX59 
RFNG 
FAM173B 
PSMD4 
TPRA1 
SUCLG1 
TBC1D9B 
ARL8B 
RMDN3 
AP5M1 
B3GALT6 
MRPS2 
ARF5 
BPTF 
ZHX1-C8ORF76 
EIF3L 
RNASEH2C 
RPS19BP1 
MVD 
PFN1 
NUPL2 
TMEM147 
KIAA0232 
ERI3 
MDC1 
COX7A2 
MTERFD1 
DCAF13 
POLR1E 
XYLT2 
SRD5A3 
UBXN2A 
GBA 
CLCC1 
ARFRP1 
SLC25A11 
DNAJA2 
VPS28 
POM121 
NSMCE2 
RABGEF1 
SPAG7 
AATF 
COX6C 
GHITM 
SEPHS1 
C17orf59 
ZHX2 
TMEM186 
NDUFA10 
TMEM256 
MBTPS1 
RPS27L 
COQ10B 
TSN 
GOSR1 
SMC5 
LSM14B 
VARS2 
DYNLL2 
TIGD5 
ETV6 
TRA2B 
ZBED4 
GLRX2 
PCBP1 
GLO1 
SCAMP2 
ERCC3 
OGT 
UEVLD 
MRPS6 
ARMC10 
DPM1 
PREB 
FAM8A1 
TMEM223 
BAP1 
NDUFC2 
USP38 
NDUFA12 
ITPK1 
RPL36AL 
DDX46 
SECISBP2 
CXXC5 
LYRM1 
PRDX3 
UBAP2L 
TBC1D1 
COPZ1 
PNPLA6 
CD81 
TXNL4B 
TAX1BP1 
TOR1B 
POLR2K 
COMMD7 
RMND5A 
RABGGTB 
STXBP3 
MIA3 
PDS5A 
C19orf43 
PDCD2 
ARIH2 
XIAP 
WDR73 
PTGES3 
ALKBH3 
AP1G1 
FPGS 
AMBRA1 
UBE2E3 
CCT3 
EFR3A 
CREBZF 
FBXL15 
AP4B1 
BIVM-ERCC5 
CCT7 
TANK 
GDI2 
CAB39 
EIF2S2 
CHKB 
PDZD11 
HINT1 
NAT10 
COPS2 
VRK3 
BFAR 
SCYL2 
LETMD1 
RBM18 
MTERFD2 
UBE2I 
EPM2AIP1 
GSR 
ORMDL1 
PRKRIP1 
ZNF274 
BAHD1 
SNX13 
ING1 
MAPKAPK5 
KLHDC3 
SIRT2 
LAMP2 
PLAA 
TRAPPC5 
LENG1 
SYPL1 
BRPF3 
DIS3L2 
GLRX3 
POMT1 
GTPBP5 
NINJ1 
RBM7 
VPS72 
GRIPAP1 
AARS 
ZNF506 
MAP2K5 
VPS16 
KRCC1 
SUZ12 
ZNF335 
GPANK1 
UTP6 
SERF2 
RPL26L1 
KDM4A 
KIAA1429 
MAP3K7 
CPSF4 
QRSL1 
IL13RA1 
PHACTR4 
HNRNPUL2 
C1orf109 
AKR7A2 
FOXRED1 
AGPAT6 
NGDN 
COX8A 
MAGED1 
PLEKHM1 
REPS1 
GZF1 
MGRN1 
CWC22 
AUH 
PCDHGB5 
TTI2 
MLH1 
CXXC1 
CHMP5 
LCOR 
COQ4 
SIAH1 
DHRS12 
COG1 
UQCC 
TRIM44 
MOSPD1 
ARPC1A 
SCFD1 
NCK1 
MRPL53 
CDC37 
SDHAF2 
TIMM13 
FXN 
FTSJD2 
TOMM5 
SMIM11 
UBE2D2 
INTS4 
TRMT1 
CUEDC2 
YAF2 
SYNJ2BP 
BCAS2 
AP2M1 
SNRNP35 
UBE2E2 
PPIE 
LONP2 
MRPL17 
PSMA7 
PCID2 
SETD6 
MTSS1 
APPL2 
TRIM26 
TRIM28 
MYBBP1A 
HDGF 
PBDC1 
SLC35B1 
GPBP1 
FBXL6 
CREG1 
SNAPIN 
NACA2 
FAM118B 
CNNM2 
WDR43 
RNF146 
TMEM242 
B4GALT5 
FAM58A 
HBS1L 
HEXIM1 
TRMT2A 
CST3 
POP4 
METTL2A 
MFSD11 
COG4 
FBXL4 
TMEM251 
C11orf58 
ZNF620 
UGP2 
SAMD4B 
PRRC2A 
LZTR1 
CCDC149 
TRAPPC10 
PSMD8 
PEX5 
NOM1 
PTPN1 
ANAPC2 
NKIRAS2 
ST7 
SS18L2 
EARS2 
LSM5 
PSMD1 
HTATIP2 
PIK3C3 
UBE2B 
ZNF134 
ZNHIT3 
TARDBP 
ALG9 
FIP1L1 
RNH1 
HS1BP3 
CSTF1 
GLRX5 
INO80B 
SLC25A3 
NQO2 
CTAGE5 
SELK 
SIGMAR1 
SLC39A1 
GCLC 
CMPK1 
MRPL10 
RPS6 
OSBP 
USP47 
UBTD1 
ZNF138 
SERGEF 
NOP58 
ZNF865 
ANAPC15 
NUDT14 
FLAD1 
SDR39U1 
SLC30A9 
HBP1 
SART1 
PPP5C 
PRKAA1 
SMEK2 
MAPK1IP1L 
ZCCHC10 
NEDD8-MDP1 
ZNF574 
CCDC94 
PDCD5 
ZBTB6 
MEAF6 
TSNAX 
NOL10 
C5orf24 
MFSD5 
DDX19B 
TMEM50B 
CLP1 
ZFYVE1 
EXOSC2 
AGPAT1 
ZXDB 
EXT2 
KCTD20 
ATF2 
FAM160A2 
ZNF664 
PPP2R5D 
ZNF507 
YWHAE 
U2AF1 
DVL3 
HMGN3 
CPSF3L 
RAB4A 
ARL8A 
IARS 
DUSP14 
TTC17 
NOC2L 
UBAP1 
TRAF6 
COASY 
OXA1L 
AP1M1 
PAK2 
RPS6KB2 
BCAP31 
MAZ 
AARS2 
RABEP1 
CARS2 
SRM 
GTF3C3 
PRPF40A 
HEATR5A 
ADH5 
RAD1 
